{"status": 1,
  "data": {
    "totalElements": 12,
    "totalPages": 2,
    "number": 1,
    "first": false,
    "last": false,
    "content": [
      {
        "createTime": 1548126770000,
        "modifiedTime": null,
        "ts": 1548126770000,
        "creator": "25515e21-799f-469c-87b8-58bd2c852bb0",
        "modifier": null,
        "tenantId": "hdrey3zl",
        "roleId": "0b276423-4e40-4e98-a8d3-00492fd315e5",
        "createDate": null,
        "isactive": 1,
        "roleCode": "RoleHR0050",
        "roleName": "HRIS",
        "roleName2": "HRIS",
        "roleName3": "HRIS",
        "roleName4": null,
        "roleName5": null,
        "roleName6": null,
        "systemCode": "diwork",
        "orgId": "",
        "orgName": "",
        "versionNum": 0,
        "description": "人力资源",
        "label": "common",
        "sysRole": true,
        "hideRole": false,
        "roleScope": null,
        "roleType": 1
      },
      {
        "createTime": 1548126770000,
        "modifiedTime": null,
        "ts": 1548126770000,
        "creator": "25515e21-799f-469c-87b8-58bd2c852bb0",
        "modifier": null,
        "tenantId": "hdrey3zl",
        "roleId": "0d599d96-15c2-492f-9573-51205e1d9be8",
        "createDate": null,
        "isactive": 1,
        "roleCode": "WSADMIN",
        "roleName": "企业文化管理员",
        "roleName2": "Enterprise Culture Admin",
        "roleName3": "企業文化管理員",
        "roleName4": null,
        "roleName5": null,
        "roleName6": null,
        "systemCode": "diwork",
        "orgId": "",
        "orgName": "",
        "versionNum": 0,
        "description": "",
        "label": "common",
        "sysRole": true,
        "hideRole": false,
        "roleScope": null,
        "roleType": 1
      },
      {
        "createTime": 1548126770000,
        "modifiedTime": null,
        "ts": 1548126770000,
        "creator": "25515e21-799f-469c-87b8-58bd2c852bb0",
        "modifier": null,
        "tenantId": "hdrey3zl",
        "roleId": "1a935b83-44d1-4389-9c72-9aa9ba3cfa1e",
        "createDate": null,
        "isactive": 1,
        "roleCode": "OrgManager",
        "roleName": "组织管理员",
        "roleName2": "Org Admin",
        "roleName3": "組織管理員",
        "roleName4": null,
        "roleName5": null,
        "roleName6": null,
        "systemCode": "diwork",
        "orgId": "",
        "orgName": "",
        "versionNum": 0,
        "description": "组织管理员",
        "label": "common",
        "sysRole": true,
        "hideRole": false,
        "roleScope": null,
        "roleType": 1
      },
      {
        "createTime": 1548126770000,
        "modifiedTime": null,
        "ts": 1548126770000,
        "creator": "25515e21-799f-469c-87b8-58bd2c852bb0",
        "modifier": null,
        "tenantId": "hdrey3zl",
        "roleId": "239f4b04-bb43-4f0f-b304-59b58aa050e1",
        "createDate": null,
        "isactive": 1,
        "roleCode": "WS002",
        "roleName": "文化专员",
        "roleName2": "Cultural Commissioner",
        "roleName3": "文化專員",
        "roleName4": null,
        "roleName5": null,
        "roleName6": null,
        "systemCode": "diwork",
        "orgId": "",
        "orgName": "",
        "versionNum": 0,
        "description": "荣誉管理",
        "label": "common",
        "sysRole": true,
        "hideRole": false,
        "roleScope": null,
        "roleType": 1
      },
      {
        "createTime": 1548126770000,
        "modifiedTime": null,
        "ts": 1548126770000,
        "creator": "25515e21-799f-469c-87b8-58bd2c852bb0",
        "modifier": null,
        "tenantId": "hdrey3zl",
        "roleId": "4d679df2-c998-4377-898c-8df1d8fed5bd",
        "createDate": null,
        "isactive": 1,
        "roleCode": "xtrole_gonggao",
        "roleName": "公告管理员",
        "roleName2": "Announcement Admin",
        "roleName3": "公告管理員",
        "roleName4": null,
        "roleName5": null,
        "roleName6": null,
        "systemCode": "diwork",
        "orgId": "",
        "orgName": "",
        "versionNum": 0,
        "description": "协同领域－公告管理员",
        "label": "common",
        "sysRole": false,
        "hideRole": false,
        "roleScope": null,
        "roleType": 1
      },
      {
        "createTime": 1548126770000,
        "modifiedTime": null,
        "ts": 1548126770000,
        "creator": "25515e21-799f-469c-87b8-58bd2c852bb0",
        "modifier": null,
        "tenantId": "hdrey3zl",
        "roleId": "5122fcd1-7dd4-4365-8a2a-116a285b3a42",
        "createDate": null,
        "isactive": 1,
        "roleCode": "RoleHR0060",
        "roleName": "HRD",
        "roleName2": "HRD",
        "roleName3": "HRD",
        "roleName4": null,
        "roleName5": null,
        "roleName6": null,
        "systemCode": "diwork",
        "orgId": "",
        "orgName": "",
        "versionNum": 0,
        "description": "人力资源",
        "label": "common",
        "sysRole": true,
        "hideRole": false,
        "roleScope": null,
        "roleType": 1
      },
      {
        "createTime": 1548126770000,
        "modifiedTime": null,
        "ts": 1548126770000,
        "creator": "25515e21-799f-469c-87b8-58bd2c852bb0",
        "modifier": null,
        "tenantId": "hdrey3zl",
        "roleId": "7a40e97e-c7ed-4d89-93c4-e6468649cf2e",
        "createDate": null,
        "isactive": 1,
        "roleCode": "RoleHR0020",
        "roleName": "部门经理",
        "roleName2": "Dept Manager",
        "roleName3": "部門經理",
        "roleName4": null,
        "roleName5": null,
        "roleName6": null,
        "systemCode": "diwork",
        "orgId": "",
        "orgName": "",
        "versionNum": 0,
        "description": "",
        "label": "common",
        "sysRole": false,
        "hideRole": false,
        "roleScope": null,
        "roleType": 1
      },
      {
        "createTime": 1548126770000,
        "modifiedTime": null,
        "ts": 1548126770000,
        "creator": "25515e21-799f-469c-87b8-58bd2c852bb0",
        "modifier": null,
        "tenantId": "hdrey3zl",
        "roleId": "abd38ad8-ded1-47f7-a9b9-71d06af5bb49",
        "createDate": null,
        "isactive": 1,
        "roleCode": "WS001",
        "roleName": "文化运营员",
        "roleName2": "Cultural Operator ",
        "roleName3": "文化運營員",
        "roleName4": null,
        "roleName5": null,
        "roleName6": null,
        "systemCode": "diwork",
        "orgId": "",
        "orgName": "",
        "versionNum": 0,
        "description": "权益上下架、频道分类管理、日常运营活动管理",
        "label": "common",
        "sysRole": true,
        "hideRole": false,
        "roleScope": null,
        "roleType": 1
      },
      {
        "createTime": 1548126770000,
        "modifiedTime": null,
        "ts": 1548126770000,
        "creator": "25515e21-799f-469c-87b8-58bd2c852bb0",
        "modifier": null,
        "tenantId": "hdrey3zl",
        "roleId": "acafcbfd-77d5-453c-b349-027943201b76",
        "createDate": null,
        "isactive": 1,
        "roleCode": "RoleHR0030",
        "roleName": "HRBP",
        "roleName2": "HRBP",
        "roleName3": "HRBP",
        "roleName4": null,
        "roleName5": null,
        "roleName6": null,
        "systemCode": "diwork",
        "orgId": "",
        "orgName": "",
        "versionNum": 0,
        "description": "人力资源",
        "label": "common",
        "sysRole": true,
        "hideRole": false,
        "roleScope": null,
        "roleType": 1
      },
      {
        "createTime": 1548126770000,
        "modifiedTime": null,
        "ts": 1548126770000,
        "creator": "25515e21-799f-469c-87b8-58bd2c852bb0",
        "modifier": null,
        "tenantId": "hdrey3zl",
        "roleId": "b0c04f6a-320d-403c-9ebd-64429bf8f58b",
        "createDate": null,
        "isactive": 1,
        "roleCode": "XTPortalManager",
        "roleName": "门户模板管理员",
        "roleName2": "Portal Template Admin",
        "roleName3": "門戶範本管理員",
        "roleName4": null,
        "roleName5": null,
        "roleName6": null,
        "systemCode": "diwork",
        "orgId": "",
        "orgName": "",
        "versionNum": 0,
        "description": "协同领域－管理某一个门户的管理者，只能设计门户，无法新建门户模版",
        "label": "common",
        "sysRole": true,
        "hideRole": false,
        "roleScope": null,
        "roleType": 1
      }
    ]
  }
}
