{
  "status": 1,
  "data": {
    "totalElements": 150,
    "totalPages": 10,
    "number": 0,
    "first": false,
    "last": false,
    "content": [
      {
        "company": null,
        "userAvator": "",
        "userEmail": "",
        "userName": "毛坤",
        "userMobile": "18201050717",
        "userId": "9ab8b615-a28c-43d6-9b3f-447be0d7299f",
        "userCode": "YHT-746-2311534140404461",
        "roleIds": null,
        "roles": [
          {
            "roleId": "045f3253-cdf4-4a8d-8fdc-ef57bffeb941",
            "createDate": "2018-10-29 09:57:10",
            "isactive": 1,
            "roleCode": "RoleHR0020",
            "roleName": "aaaaaaaaaa",
            "roleName2": "Dept Manager",
            "roleName3": "部門經理",
            "roleName4": null,
            "roleName5": null,
            "roleName6": null,
            "tenantId": "bwu1w0g8",
            "systemCode": "diwork",
            "orgId": "",
            "orgName": "",
            "versionNum": 0,
            "description": "",
            "label": "common",
            "sysRole": true
          },
          {
            "roleId": "045f3253-cdf4-4a8d-8fdc-ef57bffeb942",
            "createDate": "2018-10-29 09:57:10",
            "isactive": 1,
            "roleCode": "RoleHR0020",
            "roleName": "bbbb",
            "roleName2": "Dept Manager",
            "roleName3": "部門經理",
            "roleName4": null,
            "roleName5": null,
            "roleName6": null,
            "tenantId": "bwu1w0g8",
            "systemCode": "diwork",
            "orgId": "",
            "orgName": "",
            "versionNum": 0,
            "description": "",
            "label": "common",
            "sysRole": true
          },
          {
            "roleId": "045f3253-cdf4-4a8d-8fdc-ef57bffeb943",
            "createDate": "2018-10-29 09:57:10",
            "isactive": 1,
            "roleCode": "RoleHR0020",
            "roleName": "cccccc",
            "roleName2": "Dept Manager",
            "roleName3": "部門經理",
            "roleName4": null,
            "roleName5": null,
            "roleName6": null,
            "tenantId": "bwu1w0g8",
            "systemCode": "diwork",
            "orgId": "",
            "orgName": "",
            "versionNum": 0,
            "description": "",
            "label": "common",
            "sysRole": true
          },
          {
            "roleId": "045f3253-cdf4-4a8d-8fdc-ef57bffeb944",
            "createDate": "2018-10-29 09:57:10",
            "isactive": 1,
            "roleCode": "RoleHR0020",
            "roleName": "ddddd",
            "roleName2": "Dept Manager",
            "roleName3": "部門經理",
            "roleName4": null,
            "roleName5": null,
            "roleName6": null,
            "tenantId": "bwu1w0g8",
            "systemCode": "diwork",
            "orgId": "",
            "orgName": "",
            "versionNum": 0,
            "description": "",
            "label": "common",
            "sysRole": true
          },
          {
            "roleId": "045f3253-cdf4-4a8d-8fdc-ef57bffeb945",
            "createDate": "2018-10-29 09:57:10",
            "isactive": 1,
            "roleCode": "RoleHR0020",
            "roleName": "eeeeeee",
            "roleName2": "Dept Manager",
            "roleName3": "部門經理",
            "roleName4": null,
            "roleName5": null,
            "roleName6": null,
            "tenantId": "bwu1w0g8",
            "systemCode": "diwork",
            "orgId": "",
            "orgName": "",
            "versionNum": 0,
            "description": "",
            "label": "common",
            "sysRole": true
          },
          {
            "roleId": "045f3253-cdf4-4a8d-8fdc-ef57bffeb946",
            "createDate": "2018-10-29 09:57:10",
            "isactive": 1,
            "roleCode": "RoleHR0020",
            "roleName": "fffffff",
            "roleName2": "Dept Manager",
            "roleName3": "部門經理",
            "roleName4": null,
            "roleName5": null,
            "roleName6": null,
            "tenantId": "bwu1w0g8",
            "systemCode": "diwork",
            "orgId": "",
            "orgName": "",
            "versionNum": 0,
            "description": "",
            "label": "common",
            "sysRole": true
          },{
            "roleId": "045f3253-cdf4-4a8d-8fdc-ef57bffeb947",
            "createDate": "2018-10-29 09:57:10",
            "isactive": 1,
            "roleCode": "RoleHR0020",
            "roleName": "ggggg",
            "roleName2": "Dept Manager",
            "roleName3": "部門經理",
            "roleName4": null,
            "roleName5": null,
            "roleName6": null,
            "tenantId": "bwu1w0g8",
            "systemCode": "diwork",
            "orgId": "",
            "orgName": "",
            "versionNum": 0,
            "description": "",
            "label": "common",
            "sysRole": true
          },{
            "roleId": "045f3253-cdf4-4a8d-8fdc-ef57bffeb948",
            "createDate": "2018-10-29 09:57:10",
            "isactive": 1,
            "roleCode": "RoleHR0020",
            "roleName": "hhhhhhhhh",
            "roleName2": "Dept Manager",
            "roleName3": "部門經理",
            "roleName4": null,
            "roleName5": null,
            "roleName6": null,
            "tenantId": "bwu1w0g8",
            "systemCode": "diwork",
            "orgId": "",
            "orgName": "",
            "versionNum": 0,
            "description": "",
            "label": "common",
            "sysRole": true
          },{
            "roleId": "045f3253-cdf4-4a8d-8fdc-ef57bffeb949",
            "createDate": "2018-10-29 09:57:10",
            "isactive": 1,
            "roleCode": "RoleHR0020",
            "roleName": "iiiiiiii",
            "roleName2": "Dept Manager",
            "roleName3": "部門經理",
            "roleName4": null,
            "roleName5": null,
            "roleName6": null,
            "tenantId": "bwu1w0g8",
            "systemCode": "diwork",
            "orgId": "",
            "orgName": "",
            "versionNum": 0,
            "description": "",
            "label": "common",
            "sysRole": true
          },{
            "roleId": "045f3253-cdf4-4a8d-8fdc-ef57bffeb940",
            "createDate": "2018-10-29 09:57:10",
            "isactive": 1,
            "roleCode": "RoleHR0020",
            "roleName": "jjjjjjjjj",
            "roleName2": "Dept Manager",
            "roleName3": "部門經理",
            "roleName4": null,
            "roleName5": null,
            "roleName6": null,
            "tenantId": "bwu1w0g8",
            "systemCode": "diwork",
            "orgId": "",
            "orgName": "",
            "versionNum": 0,
            "description": "",
            "label": "common",
            "sysRole": true
          },{
            "roleId": "045f3253-cdf4-4a8d-8fdc-ef57bffeb94a",
            "createDate": "2018-10-29 09:57:10",
            "isactive": 1,
            "roleCode": "RoleHR0020",
            "roleName": "kkkkkkkkk",
            "roleName2": "Dept Manager",
            "roleName3": "部門經理",
            "roleName4": null,
            "roleName5": null,
            "roleName6": null,
            "tenantId": "bwu1w0g8",
            "systemCode": "diwork",
            "orgId": "",
            "orgName": "",
            "versionNum": 0,
            "description": "",
            "label": "common",
            "sysRole": true
          },{
            "roleId": "045f3253-cdf4-4a8d-8fdc-ef57bffeb94b",
            "createDate": "2018-10-29 09:57:10",
            "isactive": 1,
            "roleCode": "RoleHR0020",
            "roleName": "llllllllll",
            "roleName2": "Dept Manager",
            "roleName3": "部門經理",
            "roleName4": null,
            "roleName5": null,
            "roleName6": null,
            "tenantId": "bwu1w0g8",
            "systemCode": "diwork",
            "orgId": "",
            "orgName": "",
            "versionNum": 0,
            "description": "",
            "label": "common",
            "sysRole": true
          },{
            "roleId": "045f3253-cdf4-4a8d-8fdc-ef57bffeb94c",
            "createDate": "2018-10-29 09:57:10",
            "isactive": 1,
            "roleCode": "RoleHR0020",
            "roleName": "mmmmmmmmmm",
            "roleName2": "Dept Manager",
            "roleName3": "dddd",
            "roleName4": null,
            "roleName5": null,
            "roleName6": null,
            "tenantId": "bwu1w0g8",
            "systemCode": "diwork",
            "orgId": "",
            "orgName": "",
            "versionNum": 0,
            "description": "",
            "label": "common",
            "sysRole": true
          },{
            "roleId": "045f3253-cdf4-4a8d-8fdc-ef57bffeb94d",
            "createDate": "2018-10-29 09:57:10",
            "isactive": 1,
            "roleCode": "RoleHR0020",
            "roleName": "nnnnnnnnnnn",
            "roleName2": "Dept Manager",
            "roleName3": "部門經理",
            "roleName4": null,
            "roleName5": null,
            "roleName6": null,
            "tenantId": "bwu1w0g8",
            "systemCode": "diwork",
            "orgId": "",
            "orgName": "",
            "versionNum": 0,
            "description": "",
            "label": "common",
            "sysRole": true
          },
          {
            "roleId": "045f3253-cdf4-4a8d-8fdc-ef57bffeb94e",
            "createDate": "2018-10-29 09:57:10",
            "isactive": 1,
            "roleCode": "RoleHR0020",
            "roleName": "ooooooooo",
            "roleName2": "Dept Manager",
            "roleName3": "部門經理",
            "roleName4": null,
            "roleName5": null,
            "roleName6": null,
            "tenantId": "bwu1w0g8",
            "systemCode": "diwork",
            "orgId": "",
            "orgName": "",
            "versionNum": 0,
            "description": "",
            "label": "common",
            "sysRole": true
          }
        ],
        "userAvatorNew": "",
        "orgId": null,
        "orgName": "龙虾龙虾默认部门",
        "orgCode": null,
        "logo": null,
        "redPacketsNum": 0,
        "gloriesNum": 0,
        "admin": false
      },
      {
        "company": null,
        "userAvator": "https://cdn.yonyoucloud.com/dev/yht/avatar/style/images/avatar/83e8e492-1c91-428c-bb92-a944dc3867b4/original/original.png",
        "userEmail": "caiycha@yonyou.com",
        "userName": "蔡亚超",
        "userMobile": "15201341280",
        "userId": "83e8e492-1c91-428c-bb92-a944dc3867b4",
        "userCode": "caiycha",
        "roleIds": null,
        "roles": [
          {
            "roleId": "045f3253-cdf4-4a8d-8fdc-ef57bffeb942",
            "createDate": "2018-10-29 09:57:10",
            "isactive": 1,
            "roleCode": "RoleHR0020",
            "roleName": "部门经理",
            "roleName2": "Dept Manager",
            "roleName3": "部門經理",
            "roleName4": null,
            "roleName5": null,
            "roleName6": null,
            "tenantId": "bwu1w0g8",
            "systemCode": "diwork",
            "orgId": "",
            "orgName": "",
            "versionNum": 0,
            "description": "",
            "label": "common",
            "sysRole": true
          }
        ],
        "userAvatorNew": "https://cdn.yonyoucloud.com/dev/yht/avatar/style/images/avatar/83e8e492-1c91-428c-bb92-a944dc3867b4/original/original.png",
        "orgId": null,
        "orgName": "龙虾龙虾默认部门",
        "orgCode": null,
        "logo": null,
        "redPacketsNum": 0,
        "gloriesNum": 0,
        "admin": false
      },
      {
        "company": null,
        "userAvator": "https://cdn.yonyoucloud.com/dev/yht/avatar/style/images/avatar/e38718c0-3042-4bd4-a200-62f5f0d8c2d3/original/original.png",
        "userEmail": "tangkunb@yonyou.com",
        "userName": "唐坤",
        "userMobile": "18813139115",
        "userId": "e38718c0-3042-4bd4-a200-62f5f0d8c2d3",
        "userCode": "yy_6289217080017290244WzzWzb",
        "roleIds": null,
        "roles": [
          {
            "roleId": "045f3253-cdf4-4a8d-8fdc-ef57bffeb942",
            "createDate": "2018-10-29 09:57:10",
            "isactive": 1,
            "roleCode": "RoleHR0020",
            "roleName": "部门经理",
            "roleName2": "Dept Manager",
            "roleName3": "部門經理",
            "roleName4": null,
            "roleName5": null,
            "roleName6": null,
            "tenantId": "bwu1w0g8",
            "systemCode": "diwork",
            "orgId": "",
            "orgName": "",
            "versionNum": 0,
            "description": "",
            "label": "common",
            "sysRole": true
          }
        ],
        "userAvatorNew": "https://cdn.yonyoucloud.com/dev/yht/avatar/style/images/avatar/e38718c0-3042-4bd4-a200-62f5f0d8c2d3/original/original.png",
        "orgId": null,
        "orgName": "龙虾龙虾默认部门",
        "orgCode": null,
        "logo": null,
        "redPacketsNum": 0,
        "gloriesNum": 0,
        "admin": false
      },
      {
        "company": null,
        "userAvator": "https://cdn.yonyoucloud.com/dev/yht/avatar/style/images/avatar/e38718c0-3042-4bd4-a200-62f5f0d8c2d3/original/original.png",
        "userEmail": "tangkunb@yonyou.com",
        "userName": "shuang4",
        "userMobile": "18813139115",
        "userId": "e38718c0-3042-4bd4-a200-62f5f0d8c2d3",
        "userCode": "yy_6289217080017290244WzzWzb",
        "roleIds": null,
        "roles": [
          {
            "roleId": "045f3253-cdf4-4a8d-8fdc-ef57bffeb942",
            "createDate": "2018-10-29 09:57:10",
            "isactive": 1,
            "roleCode": "RoleHR0020",
            "roleName": "部门经理",
            "roleName2": "Dept Manager",
            "roleName3": "部門經理",
            "roleName4": null,
            "roleName5": null,
            "roleName6": null,
            "tenantId": "bwu1w0g8",
            "systemCode": "diwork",
            "orgId": "",
            "orgName": "",
            "versionNum": 0,
            "description": "",
            "label": "common",
            "sysRole": true
          }
        ],
        "userAvatorNew": "https://cdn.yonyoucloud.com/dev/yht/avatar/style/images/avatar/e38718c0-3042-4bd4-a200-62f5f0d8c2d3/original/original.png",
        "orgId": null,
        "orgName": "龙虾龙虾默认部门",
        "orgCode": null,
        "logo": null,
        "redPacketsNum": 0,
        "gloriesNum": 0,
        "admin": false
      },
      {
        "company": null,
        "userAvator": "https://cdn.yonyoucloud.com/dev/yht/avatar/style/images/avatar/e38718c0-3042-4bd4-a200-62f5f0d8c2d3/original/original.png",
        "userEmail": "tangkunb@yonyou.com",
        "userName": "shuang5",
        "userMobile": "18813139115",
        "userId": "e38718c0-3042-4bd4-a200-62f5f0d8c2d3",
        "userCode": "yy_6289217080017290244WzzWzb",
        "roleIds": null,
        "roles": [
          {
            "roleId": "045f3253-cdf4-4a8d-8fdc-ef57bffeb942",
            "createDate": "2018-10-29 09:57:10",
            "isactive": 1,
            "roleCode": "RoleHR0020",
            "roleName": "部门经理",
            "roleName2": "Dept Manager",
            "roleName3": "部門經理",
            "roleName4": null,
            "roleName5": null,
            "roleName6": null,
            "tenantId": "bwu1w0g8",
            "systemCode": "diwork",
            "orgId": "",
            "orgName": "",
            "versionNum": 0,
            "description": "",
            "label": "common",
            "sysRole": true
          }
        ],
        "userAvatorNew": "https://cdn.yonyoucloud.com/dev/yht/avatar/style/images/avatar/e38718c0-3042-4bd4-a200-62f5f0d8c2d3/original/original.png",
        "orgId": null,
        "orgName": "龙虾龙虾默认部门",
        "orgCode": null,
        "logo": null,
        "redPacketsNum": 0,
        "gloriesNum": 0,
        "admin": false
      },
      {
        "company": null,
        "userAvator": "https://cdn.yonyoucloud.com/dev/yht/avatar/style/images/avatar/e38718c0-3042-4bd4-a200-62f5f0d8c2d3/original/original.png",
        "userEmail": "tangkunb@yonyou.com",
        "userName": "shuang6",
        "userMobile": "18813139115",
        "userId": "e38718c0-3042-4bd4-a200-62f5f0d8c2d3",
        "userCode": "yy_6289217080017290244WzzWzb",
        "roleIds": null,
        "roles": [
          {
            "roleId": "045f3253-cdf4-4a8d-8fdc-ef57bffeb942",
            "createDate": "2018-10-29 09:57:10",
            "isactive": 1,
            "roleCode": "RoleHR0020",
            "roleName": "部门经理",
            "roleName2": "Dept Manager",
            "roleName3": "部門經理",
            "roleName4": null,
            "roleName5": null,
            "roleName6": null,
            "tenantId": "bwu1w0g8",
            "systemCode": "diwork",
            "orgId": "",
            "orgName": "",
            "versionNum": 0,
            "description": "",
            "label": "common",
            "sysRole": true
          }
        ],
        "userAvatorNew": "https://cdn.yonyoucloud.com/dev/yht/avatar/style/images/avatar/e38718c0-3042-4bd4-a200-62f5f0d8c2d3/original/original.png",
        "orgId": null,
        "orgName": "龙虾龙虾默认部门",
        "orgCode": null,
        "logo": null,
        "redPacketsNum": 0,
        "gloriesNum": 0,
        "admin": false
      },
      {
        "company": null,
        "userAvator": "https://cdn.yonyoucloud.com/dev/yht/avatar/style/images/avatar/e38718c0-3042-4bd4-a200-62f5f0d8c2d3/original/original.png",
        "userEmail": "tangkunb@yonyou.com",
        "userName": "shuang7",
        "userMobile": "18813139115",
        "userId": "e38718c0-3042-4bd4-a200-62f5f0d8c2d3",
        "userCode": "yy_6289217080017290244WzzWzb",
        "roleIds": null,
        "roles": [
          {
            "roleId": "045f3253-cdf4-4a8d-8fdc-ef57bffeb942",
            "createDate": "2018-10-29 09:57:10",
            "isactive": 1,
            "roleCode": "RoleHR0020",
            "roleName": "部门经理",
            "roleName2": "Dept Manager",
            "roleName3": "部門經理",
            "roleName4": null,
            "roleName5": null,
            "roleName6": null,
            "tenantId": "bwu1w0g8",
            "systemCode": "diwork",
            "orgId": "",
            "orgName": "",
            "versionNum": 0,
            "description": "",
            "label": "common",
            "sysRole": true
          }
        ],
        "userAvatorNew": "https://cdn.yonyoucloud.com/dev/yht/avatar/style/images/avatar/e38718c0-3042-4bd4-a200-62f5f0d8c2d3/original/original.png",
        "orgId": null,
        "orgName": "龙虾龙虾默认部门",
        "orgCode": null,
        "logo": null,
        "redPacketsNum": 0,
        "gloriesNum": 0,
        "admin": false
      },
      {
        "company": null,
        "userAvator": "https://cdn.yonyoucloud.com/dev/yht/avatar/style/images/avatar/e38718c0-3042-4bd4-a200-62f5f0d8c2d3/original/original.png",
        "userEmail": "tangkunb@yonyou.com",
        "userName": "shuang8",
        "userMobile": "18813139115",
        "userId": "e38718c0-3042-4bd4-a200-62f5f0d8c2d3",
        "userCode": "yy_6289217080017290244WzzWzb",
        "roleIds": null,
        "roles": [
          {
            "roleId": "045f3253-cdf4-4a8d-8fdc-ef57bffeb942",
            "createDate": "2018-10-29 09:57:10",
            "isactive": 1,
            "roleCode": "RoleHR0020",
            "roleName": "部门经理",
            "roleName2": "Dept Manager",
            "roleName3": "部門經理",
            "roleName4": null,
            "roleName5": null,
            "roleName6": null,
            "tenantId": "bwu1w0g8",
            "systemCode": "diwork",
            "orgId": "",
            "orgName": "",
            "versionNum": 0,
            "description": "",
            "label": "common",
            "sysRole": true
          }
        ],
        "userAvatorNew": "https://cdn.yonyoucloud.com/dev/yht/avatar/style/images/avatar/e38718c0-3042-4bd4-a200-62f5f0d8c2d3/original/original.png",
        "orgId": null,
        "orgName": "龙虾龙虾默认部门",
        "orgCode": null,
        "logo": null,
        "redPacketsNum": 0,
        "gloriesNum": 0,
        "admin": false
      },
      {
        "company": null,
        "userAvator": "https://cdn.yonyoucloud.com/dev/yht/avatar/style/images/avatar/e38718c0-3042-4bd4-a200-62f5f0d8c2d3/original/original.png",
        "userEmail": "tangkunb@yonyou.com",
        "userName": "shuang9",
        "userMobile": "18813139115",
        "userId": "e38718c0-3042-4bd4-a200-62f5f0d8c2d3",
        "userCode": "yy_6289217080017290244WzzWzb",
        "roleIds": null,
        "roles": [
          {
            "roleId": "045f3253-cdf4-4a8d-8fdc-ef57bffeb942",
            "createDate": "2018-10-29 09:57:10",
            "isactive": 1,
            "roleCode": "RoleHR0020",
            "roleName": "部门经理",
            "roleName2": "Dept Manager",
            "roleName3": "部門經理",
            "roleName4": null,
            "roleName5": null,
            "roleName6": null,
            "tenantId": "bwu1w0g8",
            "systemCode": "diwork",
            "orgId": "",
            "orgName": "",
            "versionNum": 0,
            "description": "",
            "label": "common",
            "sysRole": true
          }
        ],
        "userAvatorNew": "https://cdn.yonyoucloud.com/dev/yht/avatar/style/images/avatar/e38718c0-3042-4bd4-a200-62f5f0d8c2d3/original/original.png",
        "orgId": null,
        "orgName": "龙虾龙虾默认部门",
        "orgCode": null,
        "logo": null,
        "redPacketsNum": 0,
        "gloriesNum": 0,
        "admin": false
      },
      {
        "company": null,
        "userAvator": "https://cdn.yonyoucloud.com/dev/yht/avatar/style/images/avatar/e38718c0-3042-4bd4-a200-62f5f0d8c2d3/original/original.png",
        "userEmail": "tangkunb@yonyou.com",
        "userName": "shuang10",
        "userMobile": "18813139115",
        "userId": "e38718c0-3042-4bd4-a200-62f5f0d8c2d3",
        "userCode": "yy_6289217080017290244WzzWzb",
        "roleIds": null,
        "roles": [
          {
            "roleId": "045f3253-cdf4-4a8d-8fdc-ef57bffeb942",
            "createDate": "2018-10-29 09:57:10",
            "isactive": 1,
            "roleCode": "RoleHR0020",
            "roleName": "部门经理",
            "roleName2": "Dept Manager",
            "roleName3": "部門經理",
            "roleName4": null,
            "roleName5": null,
            "roleName6": null,
            "tenantId": "bwu1w0g8",
            "systemCode": "diwork",
            "orgId": "",
            "orgName": "",
            "versionNum": 0,
            "description": "",
            "label": "common",
            "sysRole": true
          }
        ],
        "userAvatorNew": "https://cdn.yonyoucloud.com/dev/yht/avatar/style/images/avatar/e38718c0-3042-4bd4-a200-62f5f0d8c2d3/original/original.png",
        "orgId": null,
        "orgName": "龙虾龙虾默认部门",
        "orgCode": null,
        "logo": null,
        "redPacketsNum": 0,
        "gloriesNum": 0,
        "admin": false
      },
      {
        "company": null,
        "userAvator": "https://cdn.yonyoucloud.com/dev/yht/avatar/style/images/avatar/e38718c0-3042-4bd4-a200-62f5f0d8c2d3/original/original.png",
        "userEmail": "tangkunb@yonyou.com",
        "userName": "shuang11",
        "userMobile": "18813139115",
        "userId": "e38718c0-3042-4bd4-a200-62f5f0d8c2d3",
        "userCode": "yy_6289217080017290244WzzWzb",
        "roleIds": null,
        "roles": [
          {
            "roleId": "045f3253-cdf4-4a8d-8fdc-ef57bffeb942",
            "createDate": "2018-10-29 09:57:10",
            "isactive": 1,
            "roleCode": "RoleHR0020",
            "roleName": "部门经理",
            "roleName2": "Dept Manager",
            "roleName3": "部門經理",
            "roleName4": null,
            "roleName5": null,
            "roleName6": null,
            "tenantId": "bwu1w0g8",
            "systemCode": "diwork",
            "orgId": "",
            "orgName": "",
            "versionNum": 0,
            "description": "",
            "label": "common",
            "sysRole": true
          }
        ],
        "userAvatorNew": "https://cdn.yonyoucloud.com/dev/yht/avatar/style/images/avatar/e38718c0-3042-4bd4-a200-62f5f0d8c2d3/original/original.png",
        "orgId": null,
        "orgName": "龙虾龙虾默认部门",
        "orgCode": null,
        "logo": null,
        "redPacketsNum": 0,
        "gloriesNum": 0,
        "admin": false
      },
      {
        "company": null,
        "userAvator": "https://cdn.yonyoucloud.com/dev/yht/avatar/style/images/avatar/e38718c0-3042-4bd4-a200-62f5f0d8c2d3/original/original.png",
        "userEmail": "tangkunb@yonyou.com",
        "userName": "shuang12",
        "userMobile": "18813139115",
        "userId": "e38718c0-3042-4bd4-a200-62f5f0d8c2d3",
        "userCode": "yy_6289217080017290244WzzWzb",
        "roleIds": null,
        "roles": [
          {
            "roleId": "045f3253-cdf4-4a8d-8fdc-ef57bffeb942",
            "createDate": "2018-10-29 09:57:10",
            "isactive": 1,
            "roleCode": "RoleHR0020",
            "roleName": "部门经理",
            "roleName2": "Dept Manager",
            "roleName3": "部門經理",
            "roleName4": null,
            "roleName5": null,
            "roleName6": null,
            "tenantId": "bwu1w0g8",
            "systemCode": "diwork",
            "orgId": "",
            "orgName": "",
            "versionNum": 0,
            "description": "",
            "label": "common",
            "sysRole": true
          }
        ],
        "userAvatorNew": "https://cdn.yonyoucloud.com/dev/yht/avatar/style/images/avatar/e38718c0-3042-4bd4-a200-62f5f0d8c2d3/original/original.png",
        "orgId": null,
        "orgName": "龙虾龙虾默认部门",
        "orgCode": null,
        "logo": null,
        "redPacketsNum": 0,
        "gloriesNum": 0,
        "admin": false
      },
      {
        "company": null,
        "userAvator": "https://cdn.yonyoucloud.com/dev/yht/avatar/style/images/avatar/e38718c0-3042-4bd4-a200-62f5f0d8c2d3/original/original.png",
        "userEmail": "tangkunb@yonyou.com",
        "userName": "honhhon",
        "userMobile": "18813139115",
        "userId": "e38718c0-3042-4bd4-a200-62f5f0d8c2d3",
        "userCode": "yy_6289217080017290244WzzWzb",
        "roleIds": null,
        "roles": [
          {
            "roleId": "045f3253-cdf4-4a8d-8fdc-ef57bffeb942",
            "createDate": "2018-10-29 09:57:10",
            "isactive": 1,
            "roleCode": "RoleHR0020",
            "roleName": "部门经理",
            "roleName2": "Dept Manager",
            "roleName3": "部門經理",
            "roleName4": null,
            "roleName5": null,
            "roleName6": null,
            "tenantId": "bwu1w0g8",
            "systemCode": "diwork",
            "orgId": "",
            "orgName": "",
            "versionNum": 0,
            "description": "",
            "label": "common",
            "sysRole": true
          }
        ],
        "userAvatorNew": "https://cdn.yonyoucloud.com/dev/yht/avatar/style/images/avatar/e38718c0-3042-4bd4-a200-62f5f0d8c2d3/original/original.png",
        "orgId": null,
        "orgName": "龙虾龙虾默认部门",
        "orgCode": null,
        "logo": null,
        "redPacketsNum": 0,
        "gloriesNum": 0,
        "admin": false
      },
      {
        "company": null,
        "userAvator": "https://cdn.yonyoucloud.com/dev/yht/avatar/style/images/avatar/e38718c0-3042-4bd4-a200-62f5f0d8c2d3/original/original.png",
        "userEmail": "tangkunb@yonyou.com",
        "userName": "leee",
        "userMobile": "18813139115",
        "userId": "e38718c0-3042-4bd4-a200-62f5f0d8c2d3",
        "userCode": "yy_6289217080017290244WzzWzb",
        "roleIds": null,
        "roles": [
          {
            "roleId": "045f3253-cdf4-4a8d-8fdc-ef57bffeb942",
            "createDate": "2018-10-29 09:57:10",
            "isactive": 1,
            "roleCode": "RoleHR0020",
            "roleName": "部门经理",
            "roleName2": "Dept Manager",
            "roleName3": "部門經理",
            "roleName4": null,
            "roleName5": null,
            "roleName6": null,
            "tenantId": "bwu1w0g8",
            "systemCode": "diwork",
            "orgId": "",
            "orgName": "",
            "versionNum": 0,
            "description": "",
            "label": "common",
            "sysRole": true
          }
        ],
        "userAvatorNew": "https://cdn.yonyoucloud.com/dev/yht/avatar/style/images/avatar/e38718c0-3042-4bd4-a200-62f5f0d8c2d3/original/original.png",
        "orgId": null,
        "orgName": "龙虾龙虾默认部门",
        "orgCode": null,
        "logo": null,
        "redPacketsNum": 0,
        "gloriesNum": 0,
        "admin": false
      }
    ]
  }
}